{
    "jobExecutionUrl" : "http://induction-dev-t3.gwynniebee.com:8080/InventoryAsyncJob-v1",
    "jobDefinition" : {
        "jobName": "InventoryJob",
        "paramMap" : {
        }
    },
    "schedule" : {
        "type" : "cron",
        "params" : {
            "CronExpression" : "0 * 11.30 * * ?"
        }
    },
    "notificationMap" : [ {
        "type" : "failure",
        "mode" : "email",
        "channel" : "nchandana@gwynniebee.com"
    } ]
}
